___lbdiv@counter 22 0 BANK0
___lwdiv@dividend 22 0 BANK0
___lldiv@counter 35 0 BANK0
___lwdiv@counter 26 0 BANK0
_RA0 60 0 ABS
_RA1 61 0 ABS
_RC2 72 0 ABS
_RB5 6D 0 ABS
__S0 8009 0 ABS
__S1 152 0 ABS
__S2 0 0 ABS
_RX9 CEE 0 ABS
_TX9 CF6 0 ABS
_GIE 5F 0 ABS
__Hintentry 154 0 CODE
__Lintentry 4 0 CODE
__pintentry 4 0 CODE
_abs 26C 0 CODE
_isr 4 0 CODE
??_init_serialport 20 0 BANK0
__end_of_init_serialport FD7 0 CODE
_rdr2_current_code C0 0 BANK1
_T0IF 5A 0 ABS
_PEIE 5E 0 ABS
_BRGH CF2 0 ABS
__size_of___lbdiv 0 0 ABS
_rdr1_got_bcode 52 0 BANK0
_SYNC CF4 0 ABS
_rdr2_got_bcode 7B 0 COMMON
_SPEN CEF 0 ABS
_TXEN CF5 0 ABS
_TRMT CF1 0 ABS
checksum@index 2D 0 BANK0
abs@a 20 0 BANK0
?_init_reader2 70 0 COMMON
?_abs 20 0 BANK0
_main 808 0 CODE
btemp 7E 0 ABS
?_isr 70 0 COMMON
_exit 154 0 CODE
start 154 0 CODE
_ANSA0 C60 0 ABS
_ANSA1 C61 0 ABS
_ANSB1 C69 0 ABS
update_widths@symbol_bars 2A 0 BANK0
_ANSA3 C63 0 ABS
_ANSB3 C6B 0 ABS
_ANSB5 C6D 0 ABS
_WPUB3 106B 0 ABS
_rdr1_symbol_bars CC 0 BANK1
_rdr2_symbol_bars D3 0 BANK1
__size_of_update_rdr1_white_bar 0 0 ABS
__size_of_update_rdr2_white_bar 0 0 ABS
_LCDIE 492 0 ABS
_ABDEN CF8 0 ABS
_TXREG 19A 0 ABS
reset_vec 0 0 CODE
_SPBRG 19B 0 ABS
_PORTC E 0 ABS
_T1CON 18 0 ABS
_PORTE 10 0 ABS
wtemp0 7E 0 ABS
__Hconfig 8009 0 CONFIG
__Lconfig 8007 0 CONFIG
?___lbmod 20 0 BANK0
?___llmod 20 0 BANK0
??_get_bar_width 72 0 COMMON
??_init_reader2 20 0 BANK0
i1_init_reader2 5B9 0 CODE
__size_of_init_serialport 0 0 ABS
?___lwmod 20 0 BANK0
__Hbigram 0 0 ABS
__Lbigram 0 0 ABS
clear_ram 73A 0 CODE
__Hram 0 0 ABS
__Lram 0 0 ABS
??_abs 22 0 BANK0
_putch D46 0 CODE
?_main 70 0 COMMON
__end_of_init_reader1 DD3 0 CODE
__end_of_init_reader2 E78 0 CODE
i1init_reader1@i 70 0 COMMON
__size_of_isr 0 0 ABS
??_isr 77 0 COMMON
_delay EA 0 BANK1
_CCP1M0 1498 0 ABS
_CCP3M0 1898 0 ABS
__end_of_abs 27A 0 CODE
_TRISA0 460 0 ABS
__Hfunctab 0 0 CODE
_TRISA1 461 0 ABS
__Lfunctab 0 0 CODE
_update_widths D50 0 CODE
_TRISC2 472 0 ABS
_TRISB3 46B 0 ABS
_TRISB5 46D 0 ABS
update_widths@white_bar_unit 27 0 BANK0
_OPTION_REG 95 0 ABS
__end_of_putch D50 0 CODE
_rdr1_rev 78 0 COMMON
??___lmul 28 0 BANK0
_rdr2_rev C9 0 BANK1
__Hcommon 0 0 ABS
__Lcommon 0 0 ABS
__Heeprom_data 0 0 EEDATA
__Leeprom_data 0 0 EEDATA
_rdr1_print_pos 57 0 BANK0
_rdr2_print_pos 60 0 BANK0
_CCPR1H 292 0 ABS
??___wmul 24 0 BANK0
_CCP1IE 48A 0 ABS
?___lbdiv 20 0 BANK0
_CCPR3H 312 0 ABS
?_prn_num 70 0 COMMON
_CCP3IE 49C 0 ABS
_CCP1IF 8A 0 ABS
_TMR0IE 5D 0 ABS
_TMR1IE 488 0 ABS
_CCP3IF 9C 0 ABS
_TMR1IF 88 0 ABS
_CCPR1L 291 0 ABS
_CCPR3L 311 0 ABS
?___lldiv 29 0 BANK0
__end_ofi1_init_reader1 681 0 CODE
_checksum DD3 0 CODE
__end_ofi1_init_reader2 61B 0 CODE
?___lwdiv 20 0 BANK0
?_update_rdr1_black_bar 27 0 BANK0
_TMR1ON C0 0 ABS
_SPLLEN 4CF 0 ABS
_T1GCON 19 0 ABS
_APFCON 11D 0 ABS
__Habs1 0 0 ABS
__Labs1 0 0 ABS
_WDTCON 97 0 ABS
__Hsfr0 0 0 ABS
__Lsfr0 0 0 ABS
__Hsfr1 0 0 ABS
__Lsfr1 0 0 ABS
_rdr1_black_bar_sum DA 0 BANK1
_rdr2_black_bar_sum E2 0 BANK1
__Hsfr2 0 0 ABS
__Lsfr2 0 0 ABS
__Hsfr3 0 0 ABS
__Lsfr3 0 0 ABS
__Hsfr4 0 0 ABS
__Lsfr4 0 0 ABS
__Hsfr5 0 0 ABS
__Lsfr5 0 0 ABS
__Hsfr6 0 0 ABS
__Lsfr6 0 0 ABS
__Hsfr7 0 0 ABS
__Lsfr7 0 0 ABS
__Hsfr8 0 0 ABS
__Lsfr8 0 0 ABS
??_init_timer1 20 0 BANK0
__Hsfr9 0 0 ABS
__Lsfr9 0 0 ABS
__ptext600 623 0 CODE
putch@txchar 20 0 BANK0
_rdr1_black_bar_unit 66 0 BANK0
_rdr2_black_bar_unit 6C 0 BANK0
??___lbmod 21 0 BANK0
__ptext601 688 0 CODE
??___llmod 28 0 BANK0
??_update_rdr1_white_bar 29 0 BANK0
__ptext602 0 0 CODE
_timer500ms ED 0 BANK1
_event500ms 4F 0 BANK0
?i1_init_reader2 70 0 COMMON
??___lwmod 24 0 BANK0
__ptext580 F86 0 CODE
__Hcode 0 0 ABS
__Lcode 0 0 ABS
__ptext590 26C 0 CODE
__size_of___lbmod 0 0 ABS
get_bar_width@trail_edge 70 0 COMMON
??_lookup_sym 36 0 BANK0
__ptext581 F91 0 CODE
?_putch 70 0 COMMON
__ptext591 E1B 0 CODE
??_main 4E 0 BANK0
__HcstackBANK0 0 0 ABS
?_update_rdr2_black_bar 27 0 BANK0
__LcstackBANK0 0 0 ABS
init_reader1@i 20 0 BANK0
__ptext582 2B0 0 CODE
__pcstackBANK0 20 0 BANK0
__ptext573 E08 0 CODE
__ptext592 D7B 0 CODE
___lmul 6C5 0 CODE
__Hinit 154 0 CODE
__Linit 154 0 CODE
___wmul E78 0 CODE
__end_of_get_bar_width 6C5 0 CODE
__end_of_main CCD 0 CODE
__ptext583 27A 0 CODE
lookup_sym@i 4D 0 BANK0
__Htext 0 0 ABS
__Ltext 0 0 ABS
__ptext574 F70 0 CODE
__ptext593 FD7 0 CODE
get_bar_width@lead_edge 76 0 COMMON
??_bar_decision 27 0 BANK0
___lmul@multiplier 20 0 BANK0
__ptext584 6C5 0 CODE
___wmul@multiplier 20 0 BANK0
__ptext575 F7B 0 CODE
__ptext594 D46 0 CODE
i1init_reader2@i 70 0 COMMON
end_of_initialization 707 0 CODE
__size_of_init_reader1 0 0 ABS
__ptext585 70A 0 CODE
__size_of_init_reader2 0 0 ABS
_rdr1_white_bar_sum E0 0 BANK1
_rdr2_white_bar_sum E8 0 BANK1
__ptext576 DD3 0 CODE
__ptext595 FCD 0 CODE
__size_of_abs 0 0 ABS
init_reader2@i 20 0 BANK0
?_init_ccp1 70 0 COMMON
__ptext586 722 0 CODE
?_update_widths 27 0 BANK0
lookup_sym@sym_array 44 0 BANK0
update_widths@white_bar_sum 29 0 BANK0
___lmul@multiplicand 24 0 BANK0
__ptext577 157 0 CODE
__ptext596 E94 0 CODE
___wmul@multiplicand 22 0 BANK0
__Hsfr10 0 0 ABS
__Lsfr10 0 0 ABS
update_rdr1_white_bar@barwidth 27 0 BANK0
__Hsfr20 0 0 ABS
__Lsfr20 0 0 ABS
__Hsfr30 0 0 ABS
__Hsfr11 0 0 ABS
__ptext587 FE0 0 CODE
__Lsfr30 0 0 ABS
__Lsfr11 0 0 ABS
_rdr1_reverse 58 0 BANK0
__Hsfr21 0 0 ABS
_rdr2_reverse CA 0 BANK1
__HnvBANK1 0 0 ABS
__Lsfr21 0 0 ABS
__LnvBANK1 0 0 ABS
__stringtab 400 0 STRCODE
_rdr1_white_bar_unit 68 0 BANK0
__Hsfr31 0 0 ABS
_rdr2_white_bar_unit 6E 0 BANK0
__Hsfr12 0 0 ABS
__Lsfr31 0 0 ABS
__Lsfr12 0 0 ABS
__Hsfr22 0 0 ABS
__Lsfr22 0 0 ABS
__pnvBANK1 EA 0 BANK1
__Hsfr13 0 0 ABS
__ptext578 D50 0 CODE
__ptext597 E8D 0 CODE
__Lsfr13 0 0 ABS
__Hsfr23 0 0 ABS
__Lsfr23 0 0 ABS
__Hsfr14 0 0 ABS
__Lsfr14 0 0 ABS
__Hsfr24 0 0 ABS
__Lsfr24 0 0 ABS
__Hsfr15 0 0 ABS
__ptext588 F9C 0 CODE
__Lsfr15 0 0 ABS
__Hsfr25 0 0 ABS
__Lsfr25 0 0 ABS
__Hsfr16 0 0 ABS
__Lsfr16 0 0 ABS
__Hsfr26 0 0 ABS
__Lsfr26 0 0 ABS
__size_of_putch 0 0 ABS
__Hsfr17 0 0 ABS
_rdr1_bars A0 0 BANK1
__ptext579 CCD 0 CODE
__Lsfr17 0 0 ABS
_rdr2_bars B0 0 BANK1
__Hsfr27 0 0 ABS
__Lsfr27 0 0 ABS
__Hsfr18 0 0 ABS
__Lsfr18 0 0 ABS
update_rdr2_white_bar@barwidth 27 0 BANK0
__Hsfr28 0 0 ABS
__Lsfr28 0 0 ABS
__Hsfr19 0 0 ABS
_rdr1_bcode_data 120 0 BANK2
__ptext589 E78 0 CODE
__Lsfr19 0 0 ABS
_rdr2_bcode_data 139 0 BANK2
__Hsfr29 0 0 ABS
__Lsfr29 0 0 ABS
??___lbdiv 21 0 BANK0
??_prn_num 25 0 BANK0
__ptext599 5B9 0 CODE
?_init_ccp3 70 0 COMMON
__Hstrings 0 0 ABS
__Lstrings 0 0 ABS
lookup_sym@sym_dist 4B 0 BANK0
checksum@sum 28 0 BANK0
_rdr1_bcode_tmr C4 0 BANK1
??___lldiv 31 0 BANK0
_rdr2_bcode_tmr C6 0 BANK1
_rdr1_got_error 53 0 BANK0
_rdr2_got_error C8 0 BANK1
__size_of_checksum 0 0 ABS
?_checksum 26 0 BANK0
_CCP3SEL 8EE 0 ABS
??___lwdiv 24 0 BANK0
lookup_sym@bar_array 4C 0 BANK0
lookup_sym@sym_table 401 0 STRCODE
__end_of_bar_decision D46 0 CODE
_CCP1CON 293 0 ABS
_CCP3CON 313 0 ABS
__Hbank0 0 0 ABS
_timebase_10ms CB 0 BANK1
__Lbank0 0 0 ABS
checksum@startindex 26 0 BANK0
__Hbank1 0 0 ABS
__Lbank1 0 0 ABS
__Hbank2 0 0 ABS
_rdr1_reason EC 0 BANK1
__Lbank2 0 0 ABS
_rdr2_reason 61 0 BANK0
??_update_rdr2_white_bar 29 0 BANK0
__Hbank3 0 0 BANK3
__Lbank3 0 0 BANK3
__Hbank4 0 0 BANK4
__Lbank4 0 0 BANK4
__end_of___lmul 6EA 0 CODE
__Hbank5 0 0 BANK5
__Lbank5 0 0 BANK5
__Hpowerup 0 0 CODE
__Lpowerup 0 0 CODE
__Hbank6 0 0 BANK6
__Lbank6 0 0 BANK6
__Hbank7 0 0 BANK7
__Lbank7 0 0 BANK7
__Hbank8 0 0 BANK8
__Lbank8 0 0 BANK8
__Hbank9 0 0 BANK9
__Lbank9 0 0 BANK9
__size_of_update_widths 0 0 ABS
_init_reader1 D7B 0 CODE
__Hclrtext 0 0 ABS
__Lclrtext 0 0 ABS
__end_of___lwdiv FC1 0 CODE
_rdr1_got_start 54 0 BANK0
_rdr2_got_start 5D 0 BANK0
lookup_sym@min_sym_dist 42 0 BANK0
__size_of_lookup_sym 0 0 ABS
_rdr1_state 5A 0 BANK0
_rdr2_state 63 0 BANK0
_init_reader2 E1B 0 CODE
_rdr1_bar_width 64 0 BANK0
_rdr2_bar_width 6A 0 BANK0
__Hidloc 0 0 IDLOC
__Lidloc 0 0 IDLOC
__end_of_init_timer1 FE0 0 CODE
___lbmod 70A 0 CODE
__end_of_init_ccp1 E97 0 CODE
__end_of_init_ccp3 E94 0 CODE
___llmod 27A 0 CODE
?_get_bar_width 70 0 COMMON
__end_of___lldiv 2EF 0 CODE
??_putch 20 0 BANK0
_rdr1_outpntr 56 0 BANK0
_rdr2_outpntr 5F 0 BANK0
___lwmod FE0 0 CODE
?i1_init_reader1 70 0 COMMON
__end_of_isr 154 0 CODE
_update_rdr1_white_bar F86 0 CODE
__end_of_update_widths D7B 0 CODE
__size_of_prn_num 0 0 ABS
?___lmul 20 0 BANK0
__size_of_bar_decision 0 0 ABS
?___wmul 20 0 BANK0
___lbdiv 722 0 CODE
__Hcinit 0 0 ABS
_prn_num E08 0 CODE
__Lcinit 0 0 ABS
___lldiv 2B0 0 CODE
___lwdiv F9C 0 CODE
__size_of_main 0 0 ABS
?_init_timer1 70 0 COMMON
__end_of_lookup_sym 26C 0 CODE
_update_rdr2_white_bar F70 0 CODE
checksum@modulo 2A 0 BANK0
_rdr1_state_timer 79 0 COMMON
_rdr2_state_timer 7C 0 COMMON
?_lookup_sym 70 0 COMMON
bar_decision@bar_unit 26 0 BANK0
__size_of_init_timer1 0 0 ABS
?_bar_decision 26 0 BANK0
prn_num@num 25 0 BANK0
??_init_ccp1 20 0 BANK0
__size_of___lwdiv 0 0 ABS
??_update_widths 2B 0 BANK0
_init_ccp1 E94 0 CODE
__HbssBANK0 0 0 ABS
__LbssBANK0 0 0 ABS
__Hbank10 0 0 BANK10
__pbssBANK0 4F 0 BANK0
__Lbank10 0 0 BANK10
__Hpa_nodes 0 0 ABS
__Lpa_nodes 0 0 ABS
?_update_rdr1_white_bar 27 0 BANK0
__Hbank20 0 0 BANK20
__Lbank20 0 0 BANK20
__Hbank30 0 0 BANK30
__Hbank11 0 0 BANK11
__Lbank30 0 0 BANK30
__Lbank11 0 0 BANK11
__size_ofi1_init_reader1 0 0 ABS
__Hbank21 0 0 BANK21
__Lbank21 0 0 BANK21
__size_ofi1_init_reader2 0 0 ABS
__Hbank31 0 0 BANK31
__Hbank12 0 0 BANK12
__Lbank31 0 0 BANK31
__Lbank12 0 0 BANK12
__end_of_checksum E08 0 CODE
__Hbank22 0 0 BANK22
__Lbank22 0 0 BANK22
__Hbank13 0 0 BANK13
__Lbank13 0 0 BANK13
_init_ccp3 E8D 0 CODE
__HbssBANK1 0 0 ABS
__LbssBANK1 0 0 ABS
__Hbank23 0 0 BANK23
__Lbank23 0 0 BANK23
__Hbank14 0 0 BANK14
__pbssBANK1 A0 0 BANK1
__Lbank14 0 0 BANK14
__Hstringtext 0 0 ABS
__Lstringtext 0 0 ABS
__Hbank24 0 0 BANK24
__Lbank24 0 0 BANK24
__pstringtext 400 0 STRCODE
__Hbank15 0 0 BANK15
__Lbank15 0 0 BANK15
update_widths@black_bar_unit 2F 0 BANK0
__Hbank25 0 0 BANK25
__Lbank25 0 0 BANK25
__end_of___lbdiv 73A 0 CODE
__Hbank16 0 0 BANK16
__Lbank16 0 0 BANK16
__Hbank26 0 0 BANK26
__Lbank26 0 0 BANK26
__Hbank17 0 0 BANK17
__Lbank17 0 0 BANK17
??i1_init_reader1 70 0 COMMON
??i1_init_reader2 70 0 COMMON
__HbssBANK2 0 0 ABS
__LbssBANK2 0 0 ABS
__Hbank27 0 0 BANK27
__Lbank27 0 0 BANK27
bar_decision@bar_width 2F 0 BANK0
__Hbank18 0 0 BANK18
__pbssBANK2 120 0 BANK2
__Lbank18 0 0 BANK18
__Hbank28 0 0 BANK28
__Lbank28 0 0 BANK28
__Hbank19 0 0 BANK19
__Lbank19 0 0 BANK19
__Hbank29 0 0 BANK29
__Lbank29 0 0 BANK29
___lbmod@divisor 20 0 BANK0
_rdr1_inpntr 55 0 BANK0
_rdr2_inpntr 5E 0 BANK0
___llmod@divisor 20 0 BANK0
__end_of___lwmod 1000 0 CODE
___lwmod@divisor 20 0 BANK0
__HbssCOMMON 0 0 ABS
lookup_sym@best_sym 43 0 BANK0
__LbssCOMMON 0 0 ABS
__size_of_get_bar_width 0 0 ABS
__pbssCOMMON 77 0 COMMON
??_init_ccp3 20 0 BANK0
_OSCCONbits 99 0 ABS
?_update_rdr2_white_bar 27 0 BANK0
__Hend_init 157 0 CODE
__Lend_init 154 0 CODE
___lbdiv@divisor 20 0 BANK0
_rdr1_first_edge 77 0 COMMON
_rdr2_first_edge 7A 0 COMMON
___lldiv@divisor 29 0 BANK0
__size_of___lldiv 0 0 ABS
___lwdiv@divisor 20 0 BANK0
??_checksum 27 0 BANK0
update_rdr1_black_bar@barwidth 27 0 BANK0
__end_of_prn_num E1B 0 CODE
_init_serialport FCD 0 CODE
_get_bar_width 688 0 CODE
??_init_reader1 20 0 BANK0
i1_init_reader1 623 0 CODE
__end_of___llmod 2B0 0 CODE
update_rdr2_black_bar@barwidth 27 0 BANK0
??_update_rdr1_black_bar 29 0 BANK0
__size_of___wmul 0 0 ABS
__Hreset_vec 3 0 CODE
__Lreset_vec 0 0 CODE
_init_timer1 FD7 0 CODE
_lookup_sym 157 0 CODE
_bar_decision CCD 0 CODE
_update_rdr1_black_bar F91 0 CODE
intlevel0 0 0 CODE
_rdr1_rxdata 59 0 BANK0
_rdr2_rxdata 62 0 BANK0
intlevel1 0 0 CODE
__end_of_update_rdr1_black_bar F9C 0 CODE
__end_of_update_rdr2_black_bar F86 0 CODE
intlevel2 0 0 CODE
intlevel3 0 0 CODE
__size_of___lmul 0 0 ABS
intlevel4 0 0 CODE
intlevel5 0 0 CODE
update_widths@black_bar_sum 28 0 BANK0
checksum@bcode 2C 0 BANK0
_update_rdr2_black_bar F7B 0 CODE
__size_of___lwmod 0 0 ABS
__HcstackCOMMON 0 0 ABS
__LcstackCOMMON 0 0 ABS
?_init_reader1 70 0 COMMON
__pcstackCOMMON 70 0 COMMON
__end_of___wmul E8D 0 CODE
_rdr1_byte_count 51 0 BANK0
_rdr2_byte_count 5C 0 BANK0
___lbdiv@quotient 23 0 BANK0
start_initialization 6EA 0 CODE
__end_of_update_rdr1_white_bar F91 0 CODE
__end_of_update_rdr2_white_bar F7B 0 CODE
___lldiv@quotient 31 0 BANK0
___lwdiv@quotient 24 0 BANK0
__size_of_init_ccp1 0 0 ABS
__size_of_init_ccp3 0 0 ABS
__Hmaintext 0 0 ABS
__Lmaintext 0 0 ABS
__pmaintext 808 0 CODE
_rdr1_bar_count 50 0 BANK0
_rdr2_bar_count 5B 0 BANK0
__end_of___lbmod 722 0 CODE
checksum@position 2B 0 BANK0
?_init_serialport 70 0 COMMON
___lbmod@dividend 22 0 BANK0
___llmod@dividend 24 0 BANK0
??_update_rdr2_black_bar 29 0 BANK0
___lbmod@counter 23 0 BANK0
___lwmod@dividend 22 0 BANK0
___llmod@counter 28 0 BANK0
___lmul@product 28 0 BANK0
___wmul@product 24 0 BANK0
___lwmod@counter 24 0 BANK0
__size_of_update_rdr1_black_bar 0 0 ABS
__size_of_update_rdr2_black_bar 0 0 ABS
_rdr1_ledge_counter DC 0 BANK1
_rdr2_ledge_counter E4 0 BANK1
___lbmod@rem 24 0 BANK0
_rdr1_tedge_counter DE 0 BANK1
_rdr2_tedge_counter E6 0 BANK1
__size_of___llmod 0 0 ABS
___lbdiv@dividend 21 0 BANK0
___lldiv@dividend 2D 0 BANK0
%segments
reset_vec 0 5 CODE 0
intentry 8 631 CODE 8
config 1000E 10011 CONFIG 1000E
cstackCOMMON 70 7C COMMON 70
bssBANK2 120 151 BANK2 120
bssBANK1 A0 ED BANK1 A0
cstackBANK0 20 6F BANK0 20
maintext 1010 1FFF CODE 1010
stringtext 800 B71 STRCODE 800
text599 B72 E7F CODE B72
%locals
bcode_rdr.obj
C:\Microchip\F1 Eval Kit\F1 Demo Code\F1Eval Demo Code\BCode_Reader 05082012\main.c
47 8007 0 CONFIG
48 8008 0 CONFIG
1228 401 0 STRCODE
C:\Users\Scott\AppData\Local\Temp\se0k.
1041 6EA 0 CODE
1032 6EB 0 CODE
1033 6EC 0 CODE
1034 6ED 0 CODE
1035 6EE 0 CODE
1036 6EF 0 CODE
1037 6F0 0 CODE
1042 6F1 0 CODE
1043 6F2 0 CODE
1044 6F3 0 CODE
1045 6F4 0 CODE
1046 6F5 0 CODE
1050 6F8 0 CODE
1051 6F9 0 CODE
1052 6FA 0 CODE
1053 6FB 0 CODE
1054 6FC 0 CODE
1055 6FD 0 CODE
1059 700 0 CODE
1060 701 0 CODE
1061 702 0 CODE
1062 703 0 CODE
1063 704 0 CODE
1064 705 0 CODE
1071 707 0 CODE
1072 708 0 CODE
1022 73A 0 CODE
1024 73B 0 CODE
1025 73C 0 CODE
1026 73D 0 CODE
1027 73E 0 CODE
1028 73F 0 CODE
C:\Microchip\F1 Eval Kit\F1 Demo Code\F1Eval Demo Code\BCode_Reader 05082012\main.c
121 808 0 CODE
122 80B 0 CODE
123 80F 0 CODE
126 810 0 CODE
127 812 0 CODE
128 813 0 CODE
130 815 0 CODE
131 816 0 CODE
133 817 0 CODE
134 819 0 CODE
135 81A 0 CODE
136 81B 0 CODE
137 81C 0 CODE
138 81D 0 CODE
141 81E 0 CODE
142 820 0 CODE
143 821 0 CODE
145 823 0 CODE
147 824 0 CODE
145 825 0 CODE
147 826 0 CODE
149 827 0 CODE
151 829 0 CODE
154 82B 0 CODE
152 82C 0 CODE
154 82D 0 CODE
156 82F 0 CODE
157 831 0 CODE
165 833 0 CODE
159 834 0 CODE
160 835 0 CODE
161 836 0 CODE
163 837 0 CODE
165 838 0 CODE
168 839 0 CODE
169 83A 0 CODE
171 83B 0 CODE
174 83C 0 CODE
171 83D 0 CODE
172 83E 0 CODE
173 83F 0 CODE
174 840 0 CODE
176 842 0 CODE
177 843 0 CODE
178 844 0 CODE
179 845 0 CODE
184 847 0 CODE
181 848 0 CODE
182 849 0 CODE
184 84A 0 CODE
186 84E 0 CODE
190 857 0 CODE
191 859 0 CODE
197 85B 0 CODE
199 85F 0 CODE
200 860 0 CODE
210 862 0 CODE
214 864 0 CODE
215 865 0 CODE
216 866 0 CODE
218 867 0 CODE
222 869 0 CODE
223 86A 0 CODE
224 86B 0 CODE
207 86C 0 CODE
231 878 0 CODE
233 880 0 CODE
234 888 0 CODE
236 88F 0 CODE
241 893 0 CODE
242 898 0 CODE
243 89B 0 CODE
244 89C 0 CODE
245 8A4 0 CODE
246 8A6 0 CODE
248 8A7 0 CODE
249 8AC 0 CODE
250 8AF 0 CODE
254 8B8 0 CODE
255 8BF 0 CODE
259 8C2 0 CODE
260 8C9 0 CODE
264 8CC 0 CODE
269 8D4 0 CODE
272 8DD 0 CODE
277 8E2 0 CODE
289 8E7 0 CODE
291 8EA 0 CODE
292 8ED 0 CODE
293 8EE 0 CODE
292 8EF 0 CODE
293 8F1 0 CODE
296 8F4 0 CODE
295 8F5 0 CODE
296 8F7 0 CODE
298 8F8 0 CODE
309 8FC 0 CODE
311 8FE 0 CODE
313 8FF 0 CODE
315 905 0 CODE
317 90A 0 CODE
319 90D 0 CODE
320 910 0 CODE
321 911 0 CODE
320 912 0 CODE
321 914 0 CODE
326 915 0 CODE
323 916 0 CODE
324 918 0 CODE
325 91A 0 CODE
326 91C 0 CODE
327 920 0 CODE
238 921 0 CODE
339 938 0 CODE
345 93C 0 CODE
351 942 0 CODE
357 94A 0 CODE
362 955 0 CODE
367 956 0 CODE
372 95E 0 CODE
385 963 0 CODE
387 968 0 CODE
391 96C 0 CODE
394 970 0 CODE
393 971 0 CODE
395 973 0 CODE
396 975 0 CODE
401 977 0 CODE
403 97A 0 CODE
402 97B 0 CODE
403 97D 0 CODE
408 982 0 CODE
411 988 0 CODE
413 98D 0 CODE
415 990 0 CODE
416 993 0 CODE
417 995 0 CODE
418 997 0 CODE
420 998 0 CODE
422 99F 0 CODE
424 9A1 0 CODE
428 9A2 0 CODE
429 9A4 0 CODE
436 9A7 0 CODE
342 9A9 0 CODE
452 9C0 0 CODE
453 9C7 0 CODE
458 9C9 0 CODE
463 9D1 0 CODE
468 9D2 0 CODE
473 9D3 0 CODE
478 9DB 0 CODE
482 9E3 0 CODE
495 9E8 0 CODE
497 9ED 0 CODE
499 9F1 0 CODE
501 9F4 0 CODE
503 9FC 0 CODE
504 9FE 0 CODE
505 A02 0 CODE
506 A04 0 CODE
508 A05 0 CODE
512 A08 0 CODE
519 A09 0 CODE
522 A0D 0 CODE
523 A10 0 CODE
524 A12 0 CODE
526 A15 0 CODE
529 A16 0 CODE
530 A19 0 CODE
531 A1B 0 CODE
449 A20 0 CODE
547 A34 0 CODE
549 A3D 0 CODE
550 A45 0 CODE
552 A4C 0 CODE
557 A50 0 CODE
558 A55 0 CODE
559 A58 0 CODE
560 A59 0 CODE
561 A61 0 CODE
562 A63 0 CODE
564 A64 0 CODE
565 A69 0 CODE
566 A6C 0 CODE
570 A75 0 CODE
571 A7C 0 CODE
575 A7F 0 CODE
576 A86 0 CODE
580 A89 0 CODE
585 A91 0 CODE
588 A9A 0 CODE
591 A9F 0 CODE
603 AA4 0 CODE
605 AA7 0 CODE
606 AAA 0 CODE
607 AAB 0 CODE
606 AAC 0 CODE
607 AAE 0 CODE
608 AB1 0 CODE
610 AB4 0 CODE
609 AB5 0 CODE
610 AB7 0 CODE
612 AB9 0 CODE
614 ABD 0 CODE
623 AE5 0 CODE
627 AE8 0 CODE
629 AEE 0 CODE
631 AF3 0 CODE
633 AF6 0 CODE
634 AF9 0 CODE
635 AFA 0 CODE
634 AFB 0 CODE
635 AFD 0 CODE
636 AFE 0 CODE
637 B01 0 CODE
638 B03 0 CODE
640 B04 0 CODE
638 B05 0 CODE
639 B07 0 CODE
640 B09 0 CODE
641 B0C 0 CODE
554 B0D 0 CODE
653 B24 0 CODE
659 B29 0 CODE
665 B2F 0 CODE
671 B37 0 CODE
676 B42 0 CODE
681 B43 0 CODE
686 B4B 0 CODE
699 B50 0 CODE
701 B55 0 CODE
705 B59 0 CODE
707 B5D 0 CODE
708 B5E 0 CODE
707 B5F 0 CODE
709 B63 0 CODE
715 B64 0 CODE
717 B67 0 CODE
716 B68 0 CODE
717 B6A 0 CODE
718 B6D 0 CODE
722 B73 0 CODE
725 B79 0 CODE
727 B7E 0 CODE
729 B81 0 CODE
730 B84 0 CODE
731 B86 0 CODE
732 B88 0 CODE
734 B89 0 CODE
736 B90 0 CODE
738 B92 0 CODE
741 B93 0 CODE
743 B95 0 CODE
749 B97 0 CODE
750 B98 0 CODE
656 B9A 0 CODE
766 BB2 0 CODE
767 BB9 0 CODE
772 BBB 0 CODE
777 BC3 0 CODE
782 BC4 0 CODE
787 BC5 0 CODE
792 BCD 0 CODE
796 BD5 0 CODE
809 BDA 0 CODE
811 BDF 0 CODE
813 BE3 0 CODE
815 BE6 0 CODE
817 BEE 0 CODE
818 BF0 0 CODE
819 BF3 0 CODE
820 BF5 0 CODE
822 BF6 0 CODE
826 BF9 0 CODE
833 BFA 0 CODE
835 BFE 0 CODE
836 BFF 0 CODE
838 C04 0 CODE
840 C07 0 CODE
843 C08 0 CODE
844 C0B 0 CODE
845 C0D 0 CODE
763 C12 0 CODE
861 C27 0 CODE
863 C2B 0 CODE
865 C2C 0 CODE
867 C31 0 CODE
868 C34 0 CODE
865 C36 0 CODE
872 C37 0 CODE
873 C3A 0 CODE
876 C3C 0 CODE
878 C40 0 CODE
880 C43 0 CODE
881 C48 0 CODE
887 C4C 0 CODE
888 C4F 0 CODE
885 C51 0 CODE
893 C57 0 CODE
895 C5A 0 CODE
897 C5D 0 CODE
899 C60 0 CODE
900 C63 0 CODE
902 C65 0 CODE
904 C68 0 CODE
906 C6B 0 CODE
909 C6F 0 CODE
911 C72 0 CODE
912 C73 0 CODE
911 C74 0 CODE
912 C75 0 CODE
913 C77 0 CODE
914 C78 0 CODE
917 C7A 0 CODE
919 C7D 0 CODE
923 C7E 0 CODE
925 C84 0 CODE
926 C87 0 CODE
923 C89 0 CODE
931 C8A 0 CODE
932 C8D 0 CODE
935 C8F 0 CODE
937 C93 0 CODE
939 C96 0 CODE
940 C9B 0 CODE
946 C9F 0 CODE
947 CA2 0 CODE
944 CA4 0 CODE
952 CA9 0 CODE
954 CAC 0 CODE
956 CAF 0 CODE
958 CB2 0 CODE
959 CB6 0 CODE
961 CB8 0 CODE
963 CBB 0 CODE
965 CBE 0 CODE
968 CC2 0 CODE
970 CC5 0 CODE
971 CC6 0 CODE
970 CC7 0 CODE
971 CC8 0 CODE
972 CCA 0 CODE
979 CCD 0 CODE
1566 CCD 0 CODE
1568 CE5 0 CODE
1570 CE6 0 CODE
1572 D19 0 CODE
1574 D1A 0 CODE
1576 D44 0 CODE
1580 D45 0 CODE
1582 D46 0 CODE
C:\Microchip\F1 Eval Kit\F1 Demo Code\F1Eval Demo Code\BCode_Reader 05082012\serialport.c
33 D46 0 CODE
34 D48 0 CODE
35 D4B 0 CODE
37 D4F 0 CODE
C:\Microchip\F1 Eval Kit\F1 Demo Code\F1Eval Demo Code\BCode_Reader 05082012\main.c
1588 D50 0 CODE
1592 D66 0 CODE
1597 D7A 0 CODE
1386 D7B 0 CODE
1387 D7D 0 CODE
1386 D81 0 CODE
1389 D86 0 CODE
1390 D87 0 CODE
1391 D88 0 CODE
1392 D89 0 CODE
1393 D8A 0 CODE
1394 D8B 0 CODE
1396 D8C 0 CODE
1397 D8F 0 CODE
1398 D91 0 CODE
1399 D94 0 CODE
1400 D95 0 CODE
1401 D96 0 CODE
1402 D97 0 CODE
1403 D99 0 CODE
1405 D9C 0 CODE
1406 D9F 0 CODE
1407 DA1 0 CODE
1410 DA4 0 CODE
1411 DA5 0 CODE
1414 DA7 0 CODE
1415 DA8 0 CODE
1414 DAC 0 CODE
1417 DB0 0 CODE
1418 DB1 0 CODE
1417 DB4 0 CODE
1418 DB5 0 CODE
1417 DB7 0 CODE
1420 DBB 0 CODE
1421 DBE 0 CODE
1423 DC0 0 CODE
1424 DC2 0 CODE
1428 DC3 0 CODE
1430 DC6 0 CODE
1431 DC7 0 CODE
1435 DCC 0 CODE
1436 DCE 0 CODE
1437 DD0 0 CODE
1440 DD3 0 CODE
1508 DD3 0 CODE
1510 DD6 0 CODE
1512 DDA 0 CODE
1513 DDB 0 CODE
1519 DDC 0 CODE
1515 DDD 0 CODE
1517 DE4 0 CODE
1518 DF4 0 CODE
1515 DF5 0 CODE
1522 DF6 0 CODE
1524 E01 0 CODE
1525 E06 0 CODE
1527 E07 0 CODE
1528 E08 0 CODE
1751 E08 0 CODE
1753 E12 0 CODE
1756 E1B 0 CODE
1447 E1B 0 CODE
1448 E1D 0 CODE
1447 E21 0 CODE
1450 E26 0 CODE
1451 E27 0 CODE
1452 E29 0 CODE
1453 E2A 0 CODE
1454 E2C 0 CODE
1455 E2E 0 CODE
1456 E2F 0 CODE
1457 E33 0 CODE
1458 E35 0 CODE
1459 E37 0 CODE
1460 E3A 0 CODE
1461 E3B 0 CODE
1462 E3C 0 CODE
1463 E3D 0 CODE
1464 E3F 0 CODE
1466 E42 0 CODE
1467 E45 0 CODE
1468 E47 0 CODE
1471 E4A 0 CODE
1472 E4B 0 CODE
1475 E4D 0 CODE
1476 E4E 0 CODE
1475 E52 0 CODE
1478 E56 0 CODE
1479 E57 0 CODE
1478 E5A 0 CODE
1479 E5B 0 CODE
1478 E5D 0 CODE
1481 E61 0 CODE
1482 E64 0 CODE
1484 E66 0 CODE
1485 E68 0 CODE
1487 E6A 0 CODE
1489 E6C 0 CODE
1490 E6D 0 CODE
1494 E71 0 CODE
1495 E73 0 CODE
1496 E75 0 CODE
1499 E78 0 CODE
C:\Program Files\HI-TECH Software\PICC\9.83\sources\wmul.c
4 E78 0 CODE
7 E7A 0 CODE
8 E7C 0 CODE
9 E80 0 CODE
10 E82 0 CODE
11 E84 0 CODE
12 E88 0 CODE
13 E8C 0 CODE
C:\Microchip\F1 Eval Kit\F1 Demo Code\F1Eval Demo Code\BCode_Reader 05082012\ccpmodule.c
19 E8D 0 CODE
20 E8F 0 CODE
21 E90 0 CODE
20 E91 0 CODE
25 E94 0 CODE
35 E94 0 CODE
39 E97 0 CODE
C:\Microchip\F1 Eval Kit\F1 Demo Code\F1Eval Demo Code\BCode_Reader 05082012\main.c
1556 F70 0 CODE
1560 F7A 0 CODE
1548 F7B 0 CODE
1552 F85 0 CODE
1540 F86 0 CODE
1544 F90 0 CODE
1532 F91 0 CODE
1536 F9B 0 CODE
C:\Program Files\HI-TECH Software\PICC\9.83\sources\lwdiv.c
9 F9C 0 CODE
10 F9E 0 CODE
11 FA2 0 CODE
14 FA3 0 CODE
12 FA4 0 CODE
13 FA6 0 CODE
12 FA8 0 CODE
17 FA9 0 CODE
18 FAB 0 CODE
19 FB3 0 CODE
20 FB7 0 CODE
22 FB8 0 CODE
23 FBA 0 CODE
25 FBC 0 CODE
26 FC0 0 CODE
C:\Microchip\F1 Eval Kit\F1 Demo Code\F1Eval Demo Code\BCode_Reader 05082012\serialport.c
23 FCD 0 CODE
24 FD0 0 CODE
25 FD1 0 CODE
26 FD2 0 CODE
27 FD3 0 CODE
28 FD4 0 CODE
29 FD5 0 CODE
30 FD6 0 CODE
C:\Microchip\F1 Eval Kit\F1 Demo Code\F1Eval Demo Code\BCode_Reader 05082012\timers.c
20 FD7 0 CODE
21 FDA 0 CODE
22 FDB 0 CODE
23 FDC 0 CODE
24 FDD 0 CODE
26 FDF 0 CODE
C:\Program Files\HI-TECH Software\PICC\9.83\sources\lwmod.c
8 FE0 0 CODE
9 FE4 0 CODE
12 FE5 0 CODE
10 FE6 0 CODE
11 FE8 0 CODE
10 FEA 0 CODE
15 FEB 0 CODE
16 FF3 0 CODE
17 FF7 0 CODE
18 FF9 0 CODE
20 FFB 0 CODE
21 FFF 0 CODE
C:\Microchip\F1 Eval Kit\F1 Demo Code\F1Eval Demo Code\BCode_Reader 05082012\main.c
1342 157 0 CODE
1345 15C 0 CODE
1349 15D 0 CODE
1350 17D 0 CODE
1351 195 0 CODE
1352 1AC 0 CODE
1353 1C2 0 CODE
1354 1D5 0 CODE
1355 1E7 0 CODE
1359 1F2 0 CODE
1362 257 0 CODE
1365 25A 0 CODE
1366 25C 0 CODE
1370 25D 0 CODE
1372 261 0 CODE
1373 263 0 CODE
1345 265 0 CODE
1378 26A 0 CODE
1379 26B 0 CODE
C:\Program Files\HI-TECH Software\PICC\9.83\sources\abs.c
6 26C 0 CODE
7 26E 0 CODE
9 279 0 CODE
C:\Program Files\HI-TECH Software\PICC\9.83\sources\llmod.c
8 27A 0 CODE
9 280 0 CODE
12 281 0 CODE
10 282 0 CODE
11 284 0 CODE
10 288 0 CODE
15 289 0 CODE
16 299 0 CODE
17 2A1 0 CODE
18 2A5 0 CODE
20 2A7 0 CODE
21 2AF 0 CODE
C:\Program Files\HI-TECH Software\PICC\9.83\sources\lldiv.c
9 2B0 0 CODE
10 2B4 0 CODE
11 2BA 0 CODE
14 2BB 0 CODE
12 2BC 0 CODE
13 2BE 0 CODE
12 2C2 0 CODE
17 2C3 0 CODE
18 2C7 0 CODE
19 2D7 0 CODE
20 2DF 0 CODE
22 2E0 0 CODE
23 2E4 0 CODE
25 2E6 0 CODE
26 2EE 0 CODE
C:\Program Files\HI-TECH Software\PICC\9.83\sources\lmul.c
4 6C5 0 CODE
7 6C9 0 CODE
8 6CB 0 CODE
9 6D3 0 CODE
10 6D7 0 CODE
11 6DB 0 CODE
12 6E1 0 CODE
13 6E9 0 CODE
C:\Program Files\HI-TECH Software\PICC\9.83\sources\lbmod.c
9 70A 0 CODE
10 70D 0 CODE
12 70E 0 CODE
13 717 0 CODE
14 718 0 CODE
15 71C 0 CODE
16 71E 0 CODE
17 720 0 CODE
18 721 0 CODE
C:\Program Files\HI-TECH Software\PICC\9.83\sources\lbdiv.c
9 722 0 CODE
10 724 0 CODE
11 727 0 CODE
14 728 0 CODE
12 729 0 CODE
13 72B 0 CODE
12 72C 0 CODE
17 72D 0 CODE
18 72E 0 CODE
19 732 0 CODE
20 734 0 CODE
22 735 0 CODE
23 736 0 CODE
25 738 0 CODE
26 739 0 CODE
C:\Microchip\F1 Eval Kit\F1 Demo Code\F1Eval Demo Code\BCode_Reader 05082012\main.c
985 4 0 CODE
990 5 0 CODE
992 B 0 CODE
994 D 0 CODE
997 E 0 CODE
1005 10 0 CODE
1006 12 0 CODE
1007 14 0 CODE
1011 1E 0 CODE
1012 1F 0 CODE
1015 22 0 CODE
1017 25 0 CODE
1018 2A 0 CODE
1019 2C 0 CODE
1020 30 0 CODE
1021 31 0 CODE
1024 32 0 CODE
1025 37 0 CODE
1026 39 0 CODE
1028 3D 0 CODE
1030 4C 0 CODE
1032 53 0 CODE
1035 58 0 CODE
1036 5A 0 CODE
994 5F 0 CODE
1045 6A 0 CODE
1047 70 0 CODE
1049 72 0 CODE
1052 73 0 CODE
1060 75 0 CODE
1061 77 0 CODE
1062 79 0 CODE
1066 83 0 CODE
1067 84 0 CODE
1070 87 0 CODE
1072 8A 0 CODE
1073 8F 0 CODE
1074 91 0 CODE
1075 95 0 CODE
1076 96 0 CODE
1079 97 0 CODE
1080 9C 0 CODE
1081 9E 0 CODE
1083 A2 0 CODE
1085 B1 0 CODE
1087 B8 0 CODE
1090 BD 0 CODE
1091 BF 0 CODE
1049 C4 0 CODE
1103 CF 0 CODE
1105 D2 0 CODE
1109 D3 0 CODE
1111 D7 0 CODE
1112 D8 0 CODE
1115 D9 0 CODE
1116 DB 0 CODE
1124 DF 0 CODE
1126 E2 0 CODE
1128 E3 0 CODE
1133 E4 0 CODE
1131 E5 0 CODE
1132 E7 0 CODE
1133 E9 0 CODE
1134 EA 0 CODE
1135 EB 0 CODE
1137 EC 0 CODE
1136 ED 0 CODE
1137 EE 0 CODE
1138 EF 0 CODE
1142 F9 0 CODE
1144 FC 0 CODE
1150 FF 0 CODE
1153 103 0 CODE
1155 106 0 CODE
1161 10B 0 CODE
1121 110 0 CODE
1174 119 0 CODE
1177 11A 0 CODE
1179 11D 0 CODE
1181 11E 0 CODE
1186 11F 0 CODE
1184 120 0 CODE
1185 122 0 CODE
1186 124 0 CODE
1187 125 0 CODE
1188 126 0 CODE
1190 127 0 CODE
1189 128 0 CODE
1190 129 0 CODE
1191 12A 0 CODE
1195 134 0 CODE
1197 137 0 CODE
1203 13A 0 CODE
1206 13D 0 CODE
1208 140 0 CODE
1214 145 0 CODE
1174 14A 0 CODE
1223 153 0 CODE
1447 5B9 0 CODE
1448 5BE 0 CODE
1447 5C3 0 CODE
1450 5C5 0 CODE
1451 5C6 0 CODE
1452 5C8 0 CODE
1453 5C9 0 CODE
1454 5CB 0 CODE
1455 5CD 0 CODE
1456 5CE 0 CODE
1457 5D2 0 CODE
1458 5D4 0 CODE
1459 5D6 0 CODE
1460 5D9 0 CODE
1461 5DA 0 CODE
1462 5DB 0 CODE
1463 5DC 0 CODE
1464 5DE 0 CODE
1466 5E1 0 CODE
1467 5E4 0 CODE
1468 5E6 0 CODE
1471 5E9 0 CODE
1472 5EA 0 CODE
1475 5EC 0 CODE
1476 5F1 0 CODE
1475 5F8 0 CODE
1478 5FA 0 CODE
1479 5FF 0 CODE
1478 604 0 CODE
1481 606 0 CODE
1482 609 0 CODE
1484 60B 0 CODE
1485 60D 0 CODE
1487 60F 0 CODE
1489 611 0 CODE
1490 612 0 CODE
1494 615 0 CODE
1495 617 0 CODE
1496 619 0 CODE
1499 61B 0 CODE
1386 623 0 CODE
1387 628 0 CODE
1386 62D 0 CODE
1389 62F 0 CODE
1390 631 0 CODE
1391 632 0 CODE
1392 633 0 CODE
1393 634 0 CODE
1394 635 0 CODE
1396 636 0 CODE
1397 639 0 CODE
1398 63B 0 CODE
1399 63E 0 CODE
1400 63F 0 CODE
1401 640 0 CODE
1402 641 0 CODE
1403 643 0 CODE
1405 646 0 CODE
1406 649 0 CODE
1407 64B 0 CODE
1410 64E 0 CODE
1411 64F 0 CODE
1414 651 0 CODE
1415 656 0 CODE
1414 65D 0 CODE
1417 65F 0 CODE
1418 664 0 CODE
1417 669 0 CODE
1420 66B 0 CODE
1421 66E 0 CODE
1423 670 0 CODE
1424 672 0 CODE
1428 673 0 CODE
1430 676 0 CODE
1431 677 0 CODE
1435 67A 0 CODE
1436 67C 0 CODE
1437 67E 0 CODE
1431 680 0 CODE
1440 681 0 CODE
1729 688 0 CODE
1731 69E 0 CODE
1735 6AC 0 CODE
1738 6C4 0 CODE
