<?xml version="1.0" encoding="utf-8"?>
<!DOCTYPE eagle SYSTEM "eagle.dtd">
<eagle version="6.5.0">
<drawing>
<settings>
<setting alwaysvectorfont="no"/>
<setting verticaltext="up"/>
</settings>
<grid distance="1" unitdist="mic" unit="mic" style="lines" multiple="1" display="no" altdistance="0.01" altunitdist="inch" altunit="inch"/>
<layers>
<layer number="1" name="Top" color="4" fill="1" visible="yes" active="yes"/>
<layer number="16" name="Bottom" color="1" fill="1" visible="yes" active="yes"/>
<layer number="17" name="Pads" color="2" fill="1" visible="yes" active="yes"/>
<layer number="18" name="Vias" color="2" fill="1" visible="yes" active="yes"/>
<layer number="19" name="Unrouted" color="6" fill="1" visible="yes" active="yes"/>
<layer number="20" name="Dimension" color="15" fill="1" visible="yes" active="yes"/>
<layer number="21" name="tPlace" color="7" fill="1" visible="yes" active="yes"/>
<layer number="22" name="bPlace" color="7" fill="1" visible="yes" active="yes"/>
<layer number="23" name="tOrigins" color="15" fill="1" visible="yes" active="yes"/>
<layer number="24" name="bOrigins" color="15" fill="1" visible="yes" active="yes"/>
<layer number="25" name="tNames" color="7" fill="1" visible="yes" active="yes"/>
<layer number="26" name="bNames" color="7" fill="1" visible="yes" active="yes"/>
<layer number="27" name="tValues" color="7" fill="1" visible="yes" active="yes"/>
<layer number="28" name="bValues" color="7" fill="1" visible="yes" active="yes"/>
<layer number="29" name="tStop" color="7" fill="3" visible="no" active="yes"/>
<layer number="30" name="bStop" color="7" fill="6" visible="no" active="yes"/>
<layer number="31" name="tCream" color="7" fill="4" visible="no" active="yes"/>
<layer number="32" name="bCream" color="7" fill="5" visible="no" active="yes"/>
<layer number="33" name="tFinish" color="6" fill="3" visible="no" active="yes"/>
<layer number="34" name="bFinish" color="6" fill="6" visible="no" active="yes"/>
<layer number="35" name="tGlue" color="7" fill="4" visible="no" active="yes"/>
<layer number="36" name="bGlue" color="7" fill="5" visible="no" active="yes"/>
<layer number="37" name="tTest" color="7" fill="1" visible="no" active="yes"/>
<layer number="38" name="bTest" color="7" fill="1" visible="no" active="yes"/>
<layer number="39" name="tKeepout" color="4" fill="11" visible="yes" active="yes"/>
<layer number="40" name="bKeepout" color="1" fill="11" visible="yes" active="yes"/>
<layer number="41" name="tRestrict" color="4" fill="10" visible="yes" active="yes"/>
<layer number="42" name="bRestrict" color="1" fill="10" visible="yes" active="yes"/>
<layer number="43" name="vRestrict" color="2" fill="10" visible="yes" active="yes"/>
<layer number="44" name="Drills" color="7" fill="1" visible="no" active="yes"/>
<layer number="45" name="Holes" color="7" fill="1" visible="no" active="yes"/>
<layer number="46" name="Milling" color="3" fill="1" visible="no" active="yes"/>
<layer number="47" name="Measures" color="7" fill="1" visible="no" active="yes"/>
<layer number="48" name="Document" color="7" fill="1" visible="yes" active="yes"/>
<layer number="49" name="Reference" color="7" fill="1" visible="yes" active="yes"/>
<layer number="50" name="dxf" color="7" fill="1" visible="yes" active="yes"/>
<layer number="51" name="tDocu" color="7" fill="1" visible="yes" active="yes"/>
<layer number="52" name="bDocu" color="7" fill="1" visible="yes" active="yes"/>
<layer number="53" name="tGND_GNDA" color="7" fill="1" visible="yes" active="yes"/>
<layer number="54" name="bGND_GNDA" color="7" fill="1" visible="yes" active="yes"/>
<layer number="56" name="wert" color="7" fill="1" visible="yes" active="yes"/>
<layer number="91" name="Nets" color="2" fill="1" visible="yes" active="yes"/>
<layer number="92" name="Busses" color="1" fill="1" visible="yes" active="yes"/>
<layer number="93" name="Pins" color="2" fill="1" visible="yes" active="yes"/>
<layer number="94" name="Symbols" color="4" fill="1" visible="yes" active="yes"/>
<layer number="95" name="Names" color="7" fill="1" visible="yes" active="yes"/>
<layer number="96" name="Values" color="7" fill="1" visible="yes" active="yes"/>
<layer number="97" name="Info" color="7" fill="1" visible="yes" active="yes"/>
<layer number="98" name="Guide" color="6" fill="1" visible="yes" active="yes"/>
<layer number="100" name="Muster" color="7" fill="1" visible="yes" active="yes"/>
<layer number="101" name="Patch_Top" color="7" fill="1" visible="yes" active="yes"/>
<layer number="102" name="Vscore" color="7" fill="1" visible="yes" active="yes"/>
<layer number="103" name="tMap" color="7" fill="1" visible="yes" active="yes"/>
<layer number="104" name="Name" color="7" fill="1" visible="yes" active="yes"/>
<layer number="105" name="tPlate" color="7" fill="1" visible="yes" active="yes"/>
<layer number="106" name="bPlate" color="7" fill="1" visible="yes" active="yes"/>
<layer number="107" name="Crop" color="7" fill="1" visible="yes" active="yes"/>
<layer number="108" name="tplace-old" color="7" fill="1" visible="yes" active="yes"/>
<layer number="109" name="ref-old" color="7" fill="1" visible="yes" active="yes"/>
<layer number="116" name="Patch_BOT" color="7" fill="1" visible="yes" active="yes"/>
<layer number="121" name="_tplace" color="7" fill="1" visible="yes" active="yes"/>
<layer number="122" name="_bplace" color="7" fill="1" visible="yes" active="yes"/>
<layer number="125" name="_tNames" color="7" fill="1" visible="yes" active="yes"/>
<layer number="144" name="Drill_legend" color="7" fill="1" visible="yes" active="yes"/>
<layer number="151" name="HeatSink" color="7" fill="1" visible="yes" active="yes"/>
<layer number="199" name="Contour" color="7" fill="1" visible="yes" active="yes"/>
<layer number="200" name="200bmp" color="7" fill="1" visible="yes" active="yes"/>
<layer number="201" name="201bmp" color="7" fill="1" visible="yes" active="yes"/>
<layer number="202" name="202bmp" color="7" fill="1" visible="yes" active="yes"/>
<layer number="203" name="203bmp" color="7" fill="1" visible="yes" active="yes"/>
<layer number="204" name="204bmp" color="7" fill="1" visible="yes" active="yes"/>
<layer number="205" name="205bmp" color="7" fill="1" visible="yes" active="yes"/>
<layer number="206" name="206bmp" color="7" fill="1" visible="yes" active="yes"/>
<layer number="207" name="207bmp" color="7" fill="1" visible="yes" active="yes"/>
<layer number="208" name="208bmp" color="7" fill="1" visible="yes" active="yes"/>
<layer number="209" name="209bmp" color="7" fill="1" visible="yes" active="yes"/>
<layer number="210" name="210bmp" color="7" fill="1" visible="yes" active="yes"/>
<layer number="211" name="211bmp" color="7" fill="1" visible="yes" active="yes"/>
<layer number="212" name="212bmp" color="7" fill="1" visible="yes" active="yes"/>
<layer number="213" name="213bmp" color="7" fill="1" visible="yes" active="yes"/>
<layer number="214" name="214bmp" color="7" fill="1" visible="yes" active="yes"/>
<layer number="215" name="215bmp" color="7" fill="1" visible="yes" active="yes"/>
<layer number="216" name="216bmp" color="7" fill="1" visible="yes" active="yes"/>
<layer number="217" name="217bmp" color="7" fill="1" visible="yes" active="yes"/>
<layer number="218" name="218bmp" color="7" fill="1" visible="yes" active="yes"/>
<layer number="219" name="219bmp" color="7" fill="1" visible="yes" active="yes"/>
<layer number="220" name="220bmp" color="7" fill="1" visible="yes" active="yes"/>
<layer number="221" name="221bmp" color="7" fill="1" visible="yes" active="yes"/>
<layer number="222" name="222bmp" color="7" fill="1" visible="yes" active="yes"/>
<layer number="223" name="223bmp" color="7" fill="1" visible="yes" active="yes"/>
<layer number="224" name="224bmp" color="7" fill="1" visible="yes" active="yes"/>
<layer number="250" name="Descript" color="7" fill="1" visible="yes" active="yes"/>
<layer number="251" name="SMDround" color="7" fill="1" visible="yes" active="yes"/>
<layer number="254" name="cooling" color="7" fill="1" visible="yes" active="yes"/>
</layers>
<library>
<description>Generated from &lt;b&gt;Display.brd&lt;/b&gt;&lt;p&gt;
by exp-lbrs.ulp</description>
<packages>
<package name="0603-CAP">
<wire x1="-1.473" y1="0.983" x2="1.473" y2="0.983" width="0.0508" layer="39"/>
<wire x1="1.473" y1="0.983" x2="1.473" y2="-0.983" width="0.0508" layer="39"/>
<wire x1="1.473" y1="-0.983" x2="-1.473" y2="-0.983" width="0.0508" layer="39"/>
<wire x1="-1.473" y1="-0.983" x2="-1.473" y2="0.983" width="0.0508" layer="39"/>
<wire x1="-0.356" y1="0.432" x2="0.356" y2="0.432" width="0.1016" layer="51"/>
<wire x1="-0.356" y1="-0.419" x2="0.356" y2="-0.419" width="0.1016" layer="51"/>
<wire x1="0" y1="0.0305" x2="0" y2="-0.0305" width="0.5588" layer="21"/>
<rectangle x1="-0.8382" y1="-0.4699" x2="-0.3381" y2="0.4801" layer="51"/>
<rectangle x1="0.3302" y1="-0.4699" x2="0.8303" y2="0.4801" layer="51"/>
<rectangle x1="-0.1999" y1="-0.3" x2="0.1999" y2="0.3" layer="35"/>
<smd name="1" x="-0.85" y="0" dx="1.1" dy="1" layer="1"/>
<smd name="2" x="0.85" y="0" dx="1.1" dy="1" layer="1"/>
<text x="-0.889" y="0.762" size="0.4064" layer="25" font="vector">&gt;NAME</text>
<text x="-1.016" y="-1.143" size="0.4064" layer="27" font="vector">&gt;VALUE</text>
</package>
<package name="0805">
<wire x1="-0.3" y1="0.6" x2="0.3" y2="0.6" width="0.1524" layer="21"/>
<wire x1="-0.3" y1="-0.6" x2="0.3" y2="-0.6" width="0.1524" layer="21"/>
<smd name="1" x="-0.9" y="0" dx="0.8" dy="1.2" layer="1"/>
<smd name="2" x="0.9" y="0" dx="0.8" dy="1.2" layer="1"/>
<text x="-0.762" y="0.8255" size="0.4064" layer="25">&gt;NAME</text>
<text x="-1.016" y="-1.397" size="0.4064" layer="27">&gt;VALUE</text>
</package>
<package name="1X02_LONGPADS">
<pad name="1" x="0" y="0" drill="1.1176" diameter="1.8796" shape="long" rot="R90"/>
<pad name="2" x="2.54" y="0" drill="1.1176" diameter="1.8796" shape="long" rot="R90"/>
</package>
<package name="1X05_LONGPADS">
<wire x1="-1.27" y1="0.635" x2="-1.27" y2="-0.635" width="0.2032" layer="21"/>
<wire x1="11.43" y1="0.635" x2="11.43" y2="-0.635" width="0.2032" layer="21"/>
<rectangle x1="9.906" y1="-0.254" x2="10.414" y2="0.254" layer="51"/>
<rectangle x1="7.366" y1="-0.254" x2="7.874" y2="0.254" layer="51"/>
<rectangle x1="4.826" y1="-0.254" x2="5.334" y2="0.254" layer="51"/>
<rectangle x1="2.286" y1="-0.254" x2="2.794" y2="0.254" layer="51"/>
<rectangle x1="-0.254" y1="-0.254" x2="0.254" y2="0.254" layer="51"/>
<pad name="1" x="0" y="0" drill="1.1176" diameter="1.8796" shape="long" rot="R90"/>
<pad name="2" x="2.54" y="0" drill="1.1176" diameter="1.8796" shape="long" rot="R90"/>
<pad name="3" x="5.08" y="0" drill="1.1176" diameter="1.8796" shape="long" rot="R90"/>
<pad name="4" x="7.62" y="0" drill="1.1176" diameter="1.8796" shape="long" rot="R90"/>
<pad name="5" x="10.16" y="0" drill="1.1176" diameter="1.8796" shape="long" rot="R90"/>
<text x="-1.3462" y="1.8288" size="1.27" layer="25" ratio="10">&gt;NAME</text>
<text x="-1.27" y="-3.175" size="1.27" layer="27">&gt;VALUE</text>
</package>
<package name="SOT23-5">
<description>&lt;b&gt;Small Outline Transistor&lt;/b&gt;</description>
<wire x1="1.4224" y1="0.4294" x2="1.4224" y2="-0.4294" width="0.2032" layer="21"/>
<wire x1="1.4" y1="-0.8" x2="-1.4" y2="-0.8" width="0.1524" layer="51"/>
<wire x1="-1.4224" y1="-0.4294" x2="-1.4224" y2="0.4294" width="0.2032" layer="21"/>
<wire x1="-1.4" y1="0.8" x2="1.4" y2="0.8" width="0.1524" layer="51"/>
<wire x1="-0.2684" y1="0.8104" x2="0.2684" y2="0.8104" width="0.2032" layer="21"/>
<wire x1="1.4" y1="0.8" x2="1.4" y2="-0.8" width="0.1524" layer="51"/>
<wire x1="-1.4" y1="0.8" x2="-1.4" y2="-0.8" width="0.1524" layer="51"/>
<rectangle x1="-1.2" y1="-1.5" x2="-0.7" y2="-0.85" layer="51"/>
<rectangle x1="-0.25" y1="-1.5" x2="0.25" y2="-0.85" layer="51"/>
<rectangle x1="0.7" y1="-1.5" x2="1.2" y2="-0.85" layer="51"/>
<rectangle x1="0.7" y1="0.85" x2="1.2" y2="1.5" layer="51"/>
<rectangle x1="-1.2" y1="0.85" x2="-0.7" y2="1.5" layer="51"/>
<smd name="1" x="-0.95" y="-1.3001" dx="0.55" dy="1.2" layer="1"/>
<smd name="2" x="0" y="-1.3001" dx="0.55" dy="1.2" layer="1"/>
<smd name="3" x="0.95" y="-1.3001" dx="0.55" dy="1.2" layer="1"/>
<smd name="4" x="0.95" y="1.3001" dx="0.55" dy="1.2" layer="1"/>
<smd name="5" x="-0.95" y="1.3001" dx="0.55" dy="1.2" layer="1"/>
<text x="-0.889" y="2.159" size="0.4064" layer="25">&gt;NAME</text>
<text x="-0.9525" y="-0.1905" size="0.4064" layer="27">&gt;VALUE</text>
</package>
<package name="SJ_2S-NO">
<description>Small solder jumper with no paste layer so it will open after reflow.</description>
<wire x1="0.8" y1="-1" x2="-0.8" y2="-1" width="0.2032" layer="21"/>
<wire x1="0.8" y1="1" x2="1" y2="0.7" width="0.2032" layer="21" curve="-90"/>
<wire x1="-1" y1="0.7" x2="-0.8" y2="1" width="0.2032" layer="21" curve="-90"/>
<wire x1="-1" y1="-0.7" x2="-0.8" y2="-1" width="0.2032" layer="21" curve="90"/>
<wire x1="0.8" y1="-1" x2="1" y2="-0.7" width="0.2032" layer="21" curve="90"/>
<wire x1="-0.8" y1="1" x2="0.8" y2="1" width="0.2032" layer="21"/>
<smd name="1" x="-0.45" y="0" dx="0.635" dy="1.27" layer="1" cream="no"/>
<smd name="2" x="0.45" y="0" dx="0.635" dy="1.27" layer="1" cream="no"/>
<text x="-0.908" y="1.27" size="0.4064" layer="25">&gt;NAME</text>
<text x="-0.908" y="-1.651" size="0.4064" layer="27">&gt;VALUE</text>
</package>
<package name="DIABLO-16">
<circle x="31.4" y="31.4" radius="1.27" width="0.127" layer="21"/>
<circle x="31.39" y="-0.08" radius="1.27" width="0.127" layer="21"/>
<smd name="P$1" x="-0.6" y="25.7" dx="1.1" dy="2" layer="1" rot="R270"/>
<smd name="P$2" x="-0.6" y="24.3" dx="1.1" dy="2" layer="1" rot="R90"/>
<smd name="P$3" x="-0.6" y="22.9" dx="1.1" dy="2" layer="1" rot="R270"/>
<smd name="P$4" x="-0.6" y="21.5" dx="1.1" dy="2" layer="1" rot="R270"/>
<smd name="P$5" x="-0.6" y="20.1" dx="1.1" dy="2" layer="1" rot="R270"/>
<smd name="P$6" x="-0.6" y="18.7" dx="1.1" dy="2" layer="1" rot="R270"/>
<smd name="P$7" x="-0.6" y="17.3" dx="1.1" dy="2" layer="1" rot="R270"/>
<smd name="P$8" x="-0.6" y="15.9" dx="1.1" dy="2" layer="1" rot="R270"/>
<smd name="P$9" x="-0.6" y="14.5" dx="1.1" dy="2" layer="1" rot="R270"/>
<smd name="P$10" x="-0.6" y="13.1" dx="1.1" dy="2" layer="1" rot="R270"/>
<smd name="P$11" x="-0.6" y="11.7" dx="1.1" dy="2" layer="1" rot="R270"/>
<smd name="P$12" x="-0.6" y="10.3" dx="1.1" dy="2" layer="1" rot="R270"/>
<smd name="P$13" x="-0.6" y="8.9" dx="1.1" dy="2" layer="1" rot="R270"/>
<smd name="P$14" x="-0.6" y="7.5" dx="1.1" dy="2" layer="1" rot="R270"/>
<smd name="P$15" x="-0.6" y="6.1" dx="1.1" dy="2" layer="1" rot="R270"/>
<smd name="P$16" x="-0.6" y="4.7" dx="1.1" dy="2" layer="1" rot="R270"/>
<smd name="P$17" x="-0.6" y="3.3" dx="1.1" dy="2" layer="1" rot="R270"/>
<smd name="P$18" x="3.8" y="-0.6" dx="1.1" dy="2" layer="1" rot="R180"/>
<smd name="P$19" x="5.1" y="-0.6" dx="1.1" dy="2" layer="1" rot="R180"/>
<smd name="P$20" x="6.4" y="-0.6" dx="1.1" dy="2" layer="1" rot="R180"/>
<smd name="P$21" x="7.7" y="-0.6" dx="1.1" dy="2" layer="1" rot="R180"/>
<smd name="P$22" x="9" y="-0.6" dx="1.1" dy="2" layer="1" rot="R180"/>
<smd name="P$23" x="10.3" y="-0.6" dx="1.1" dy="2" layer="1" rot="R180"/>
<smd name="P$24" x="11.6" y="-0.6" dx="1.1" dy="2" layer="1" rot="R180"/>
<smd name="P$25" x="12.9" y="-0.6" dx="1.1" dy="2" layer="1" rot="R180"/>
<smd name="P$26" x="14.2" y="-0.6" dx="1.1" dy="2" layer="1" rot="R180"/>
<smd name="P$27" x="15.5" y="-0.6" dx="1.1" dy="2" layer="1" rot="R180"/>
<smd name="P$28" x="16.8" y="-0.6" dx="1.1" dy="2" layer="1" rot="R180"/>
<smd name="P$29" x="18.1" y="-0.6" dx="1.1" dy="2" layer="1" rot="R180"/>
<smd name="P$30" x="19.4" y="-0.6" dx="1.1" dy="2" layer="1" rot="R180"/>
<smd name="P$31" x="20.7" y="-0.6" dx="1.1" dy="2" layer="1"/>
<smd name="P$32" x="22" y="-0.6" dx="1.1" dy="2" layer="1"/>
<smd name="P$33" x="23.3" y="-0.6" dx="1.1" dy="2" layer="1"/>
<smd name="P$34" x="24.6" y="-0.6" dx="1.1" dy="2" layer="1"/>
<smd name="P$35" x="32" y="4.5" dx="1.1" dy="2" layer="1" rot="R90"/>
<smd name="P$36" x="32" y="5.8" dx="1.1" dy="2" layer="1" rot="R90"/>
<smd name="P$37" x="32" y="7.1" dx="1.1" dy="2" layer="1" rot="R90"/>
<smd name="P$38" x="32" y="8.4" dx="1.1" dy="2" layer="1" rot="R90"/>
<smd name="P$39" x="32" y="9.7" dx="1.1" dy="2" layer="1" rot="R90"/>
<smd name="P$40" x="32" y="11" dx="1.1" dy="2" layer="1" rot="R90"/>
<smd name="P$41" x="32" y="12.3" dx="1.1" dy="2" layer="1" rot="R90"/>
<smd name="P$42" x="32" y="13.6" dx="1.1" dy="2" layer="1" rot="R90"/>
<smd name="P$43" x="32" y="14.9" dx="1.1" dy="2" layer="1" rot="R90"/>
<smd name="P$44" x="32" y="16.2" dx="1.1" dy="2" layer="1" rot="R90"/>
<smd name="P$45" x="32" y="17.5" dx="1.1" dy="2" layer="1" rot="R90"/>
<smd name="P$46" x="32" y="18.8" dx="1.1" dy="2" layer="1" rot="R90"/>
<smd name="P$47" x="32" y="20.1" dx="1.1" dy="2" layer="1" rot="R90"/>
<smd name="P$48" x="32" y="21.4" dx="1.1" dy="2" layer="1" rot="R90"/>
<smd name="P$49" x="32" y="22.7" dx="1.1" dy="2" layer="1" rot="R90"/>
<smd name="P$50" x="32" y="24" dx="1.1" dy="2" layer="1" rot="R90"/>
<smd name="P$51" x="32" y="25.3" dx="1.1" dy="2" layer="1" rot="R90"/>
<smd name="P$52" x="32" y="26.6" dx="1.1" dy="2" layer="1" rot="R270"/>
<smd name="P$53" x="32" y="27.9" dx="1.1" dy="2" layer="1" rot="R90"/>
<smd name="P$54" x="28.3" y="31.9" dx="1.1" dy="2" layer="1" rot="R180"/>
<pad name="P$55" x="31.4" y="31.4" drill="2" shape="square" rot="R180"/>
<pad name="P$56" x="31.4" y="-0.1" drill="2" shape="square" rot="R180"/>
<pad name="P$57" x="0" y="-0.1" drill="2" shape="square" rot="R90"/>
<text x="11.3" y="15.1" size="1.27" layer="25">&gt;NAME</text>
<text x="11.8" y="12" size="1.27" layer="27">&gt;PART</text>
</package>
<package name="REF-PACKAGES_MSOP08">
<description>&lt;b&gt;Mini Small Outline Package&lt;/b&gt; Grid 0.5mm</description>
<wire x1="-1.4" y1="1.4" x2="1.4" y2="1.4" width="0.2032" layer="21"/>
<wire x1="1.4" y1="1.4" x2="1.4" y2="-1.4" width="0.2032" layer="21"/>
<wire x1="1.4" y1="-1.4" x2="-1.4" y2="-1.4" width="0.2032" layer="21"/>
<wire x1="-1.4" y1="-1.4" x2="-1.4" y2="1.4" width="0.2032" layer="21"/>
<wire x1="-0.8" y1="-1.1" x2="-0.8" y2="-0.5" width="0.2032" layer="21" curve="-180"/>
<wire x1="-0.8" y1="-0.5" x2="-0.8" y2="-1.1" width="0.2032" layer="21"/>
<rectangle x1="-1.1" y1="-2.5" x2="-0.85" y2="-1.5" layer="51"/>
<rectangle x1="-0.45" y1="-2.5" x2="-0.2" y2="-1.5" layer="51"/>
<rectangle x1="0.2" y1="-2.5" x2="0.45" y2="-1.5" layer="51"/>
<rectangle x1="0.2" y1="-2.5" x2="0.45" y2="-1.5" layer="51"/>
<rectangle x1="0.85" y1="-2.5" x2="1.1" y2="-1.5" layer="51"/>
<rectangle x1="0.85" y1="1.5" x2="1.1" y2="2.5" layer="51"/>
<rectangle x1="0.2" y1="1.5" x2="0.45" y2="2.5" layer="51"/>
<rectangle x1="-0.45" y1="1.5" x2="-0.2" y2="2.5" layer="51"/>
<rectangle x1="-1.1" y1="1.5" x2="-0.85" y2="2.5" layer="51"/>
<smd name="1" x="-0.9756" y="-2.1131" dx="0.3" dy="1.2" layer="1"/>
<smd name="2" x="-0.3256" y="-2.1131" dx="0.3" dy="1.2" layer="1"/>
<smd name="3" x="0.3244" y="-2.1131" dx="0.3" dy="1.2" layer="1"/>
<smd name="4" x="0.9744" y="-2.1131" dx="0.3" dy="1.2" layer="1"/>
<smd name="5" x="0.9744" y="2.1119" dx="0.3" dy="1.2" layer="1"/>
<smd name="6" x="0.3244" y="2.1119" dx="0.3" dy="1.2" layer="1"/>
<smd name="7" x="-0.3256" y="2.1119" dx="0.3" dy="1.2" layer="1"/>
<smd name="8" x="-0.9756" y="2.1119" dx="0.3" dy="1.2" layer="1"/>
<smd name="P$9" x="0" y="0" dx="1.524" dy="2.032" layer="1" rot="R90"/>
<text x="-2.032" y="-2.54" size="1.27" layer="25" ratio="10" rot="R90">&gt;NAME</text>
<text x="3.302" y="-2.54" size="1.27" layer="27" ratio="10" rot="R90">&gt;VALUE</text>
</package>
<package name="SOT-23-5">
<description>SOT-23, 5-pin</description>
<wire x1="-1.524" y1="0.762" x2="-1.524" y2="-0.762" width="0.127" layer="21"/>
<wire x1="-1.524" y1="-0.762" x2="1.524" y2="-0.762" width="0.127" layer="21"/>
<wire x1="1.524" y1="-0.762" x2="1.524" y2="0.762" width="0.127" layer="21"/>
<wire x1="1.524" y1="0.762" x2="-1.524" y2="0.762" width="0.127" layer="21"/>
<smd name="1" x="-0.9525" y="-1.27" dx="0.762" dy="1.397" layer="1"/>
<smd name="2" x="0" y="-1.27" dx="0.762" dy="1.397" layer="1"/>
<smd name="3" x="0.9525" y="-1.27" dx="0.762" dy="1.397" layer="1"/>
<smd name="4" x="0.9525" y="1.27" dx="0.762" dy="1.397" layer="1"/>
<smd name="5" x="-0.9525" y="1.27" dx="0.762" dy="1.397" layer="1"/>
<text x="-0.8255" y="-0.508" size="1.016" layer="21" ratio="12">&gt;NAME</text>
<text x="-1.778" y="0.508" size="1.016" layer="21" ratio="12" rot="R180">&gt;VALUE</text>
</package>
<package name="LSP10">
<description>&lt;b&gt;SOLDER PAD&lt;/b&gt;&lt;p&gt;
drill 1.0 mm</description>
<wire x1="-1.27" y1="0.254" x2="-1.27" y2="-0.254" width="0.1524" layer="21"/>
<wire x1="1.27" y1="0.254" x2="1.27" y2="-0.254" width="0.1524" layer="21"/>
<wire x1="1.27" y1="0.254" x2="1.143" y2="0.254" width="0.1524" layer="21"/>
<wire x1="1.27" y1="-0.254" x2="1.143" y2="-0.254" width="0.1524" layer="21"/>
<wire x1="-1.27" y1="-0.254" x2="-1.143" y2="-0.254" width="0.1524" layer="21"/>
<wire x1="-1.27" y1="0.254" x2="-1.143" y2="0.254" width="0.1524" layer="21"/>
<wire x1="1.143" y1="0.254" x2="0.635" y2="0.254" width="0.1524" layer="51"/>
<wire x1="-1.143" y1="-0.254" x2="-0.635" y2="-0.254" width="0.1524" layer="51"/>
<wire x1="0.635" y1="0.254" x2="0.635" y2="-0.254" width="0.1524" layer="51"/>
<wire x1="0.635" y1="0.254" x2="-0.635" y2="0.254" width="0.1524" layer="51"/>
<wire x1="0.635" y1="-0.254" x2="1.143" y2="-0.254" width="0.1524" layer="51"/>
<wire x1="-0.635" y1="0.254" x2="-0.635" y2="-0.254" width="0.1524" layer="51"/>
<wire x1="-0.635" y1="0.254" x2="-1.143" y2="0.254" width="0.1524" layer="51"/>
<wire x1="-0.635" y1="-0.254" x2="0.635" y2="-0.254" width="0.1524" layer="51"/>
<pad name="MP" x="0" y="0" drill="1.016" diameter="2.159" shape="octagon"/>
<text x="-1.27" y="1.27" size="1.27" layer="25" ratio="10">&gt;NAME</text>
<text x="0" y="0.254" size="0.0254" layer="27">&gt;VALUE</text>
</package>
<package name="SOT23-BEC">
<description>&lt;b&gt;TO-236&lt;/b&gt; ITT Intermetall</description>
<wire x1="1.4224" y1="0.6604" x2="1.4224" y2="-0.6604" width="0.127" layer="51"/>
<wire x1="1.4224" y1="-0.6604" x2="-1.4224" y2="-0.6604" width="0.127" layer="51"/>
<wire x1="-1.4224" y1="-0.6604" x2="-1.4224" y2="0.6604" width="0.127" layer="51"/>
<wire x1="-1.4224" y1="0.6604" x2="1.4224" y2="0.6604" width="0.127" layer="51"/>
<rectangle x1="-0.2286" y1="0.7112" x2="0.2286" y2="1.2954" layer="51"/>
<rectangle x1="0.7112" y1="-1.2954" x2="1.1684" y2="-0.7112" layer="51"/>
<rectangle x1="-1.1684" y1="-1.2954" x2="-0.7112" y2="-0.7112" layer="51"/>
<smd name="B" x="-0.95" y="-1.1" dx="1" dy="1.4" layer="1"/>
<smd name="C" x="0" y="1.1" dx="1" dy="1.4" layer="1"/>
<smd name="E" x="0.95" y="-1.1" dx="1" dy="1.4" layer="1"/>
<text x="-1.905" y="1.905" size="1.27" layer="25">&gt;NAME</text>
<text x="-1.905" y="-3.175" size="1.27" layer="27">&gt;VALUE</text>
</package>
</packages>
<symbols>
</symbols>
<devicesets>
</devicesets>
</library>
</drawing>
</eagle>
